^C:\USERS\МИХАИЛ\DOCUMENTS\VISUAL STUDIO 2013\PROJECTS\OPENMPTH\OPENMPTH\MAIN.CPP
D:\PROGRAMFILE\WS\VC\BIN\1049\CLUI.DLL
C:\WINDOWS\GLOBALIZATION\SORTING\SORTDEFAULT.NLS
D:\PROGRAMFILE\WS\VC\BIN\MSPDBSRV.EXE
C:\WINDOWS\SYSTEM32\TZRES.DLL
D:\PROGRAMFILE\WS\VC\INCLUDE\IOSTREAM
D:\PROGRAMFILE\WS\VC\INCLUDE\ISTREAM
D:\PROGRAMFILE\WS\VC\INCLUDE\OSTREAM
D:\PROGRAMFILE\WS\VC\INCLUDE\IOS
D:\PROGRAMFILE\WS\VC\INCLUDE\XLOCNUM
D:\PROGRAMFILE\WS\VC\INCLUDE\CLIMITS
D:\PROGRAMFILE\WS\VC\INCLUDE\YVALS.H
D:\PROGRAMFILE\WS\VC\INCLUDE\XKEYCHECK.H
D:\PROGRAMFILE\WS\VC\INCLUDE\CRTDEFS.H
D:\PROGRAMFILE\WS\VC\INCLUDE\SAL.H
D:\PROGRAMFILE\WS\VC\INCLUDE\CONCURRENCYSAL.H
D:\PROGRAMFILE\WS\VC\INCLUDE\VADEFS.H
D:\PROGRAMFILE\WS\VC\INCLUDE\USE_ANSI.H
D:\PROGRAMFILE\WS\VC\INCLUDE\LIMITS.H
D:\PROGRAMFILE\WS\VC\INCLUDE\CMATH
D:\PROGRAMFILE\WS\VC\INCLUDE\MATH.H
D:\PROGRAMFILE\WS\VC\INCLUDE\XTGMATH.H
D:\PROGRAMFILE\WS\VC\INCLUDE\XTR1COMMON
D:\PROGRAMFILE\WS\VC\INCLUDE\CSTDIO
D:\PROGRAMFILE\WS\VC\INCLUDE\STDIO.H
D:\PROGRAMFILE\WS\VC\INCLUDE\SWPRINTF.INL
D:\PROGRAMFILE\WS\VC\INCLUDE\CSTDLIB
D:\PROGRAMFILE\WS\VC\INCLUDE\STDLIB.H
D:\PROGRAMFILE\WS\VC\INCLUDE\STREAMBUF
D:\PROGRAMFILE\WS\VC\INCLUDE\XIOSBASE
D:\PROGRAMFILE\WS\VC\INCLUDE\XLOCALE
D:\PROGRAMFILE\WS\VC\INCLUDE\CSTRING
D:\PROGRAMFILE\WS\VC\INCLUDE\STRING.H
D:\PROGRAMFILE\WS\VC\INCLUDE\STDEXCEPT
D:\PROGRAMFILE\WS\VC\INCLUDE\EXCEPTION
D:\PROGRAMFILE\WS\VC\INCLUDE\XSTDDEF
D:\PROGRAMFILE\WS\VC\INCLUDE\CSTDDEF
D:\PROGRAMFILE\WS\VC\INCLUDE\STDDEF.H
D:\PROGRAMFILE\WS\VC\INCLUDE\INITIALIZER_LIST
D:\PROGRAMFILE\WS\VC\INCLUDE\EH.H
D:\PROGRAMFILE\WS\VC\INCLUDE\MALLOC.H
D:\PROGRAMFILE\WS\VC\INCLUDE\XSTRING
D:\PROGRAMFILE\WS\VC\INCLUDE\XMEMORY0
D:\PROGRAMFILE\WS\VC\INCLUDE\LIMITS
D:\PROGRAMFILE\WS\VC\INCLUDE\YMATH.H
D:\PROGRAMFILE\WS\VC\INCLUDE\CFLOAT
D:\PROGRAMFILE\WS\VC\INCLUDE\FLOAT.H
D:\PROGRAMFILE\WS\VC\INCLUDE\CRTWRN.H
D:\PROGRAMFILE\WS\VC\INCLUDE\CWCHAR
D:\PROGRAMFILE\WS\VC\INCLUDE\WCHAR.H
D:\PROGRAMFILE\WS\VC\INCLUDE\WTIME.INL
D:\PROGRAMFILE\WS\VC\INCLUDE\NEW
D:\PROGRAMFILE\WS\VC\INCLUDE\XUTILITY
D:\PROGRAMFILE\WS\VC\INCLUDE\UTILITY
D:\PROGRAMFILE\WS\VC\INCLUDE\IOSFWD
D:\PROGRAMFILE\WS\VC\INCLUDE\CRTDBG.H
D:\PROGRAMFILE\WS\VC\INCLUDE\TYPE_TRAITS
D:\PROGRAMFILE\WS\VC\INCLUDE\XREFWRAP
D:\PROGRAMFILE\WS\VC\INCLUDE\XATOMIC0.H
D:\PROGRAMFILE\WS\VC\INCLUDE\INTRIN.H
D:\PROGRAMFILE\WS\VC\INCLUDE\SETJMP.H
D:\PROGRAMFILE\WS\VC\INCLUDE\IMMINTRIN.H
D:\PROGRAMFILE\WS\VC\INCLUDE\WMMINTRIN.H
D:\PROGRAMFILE\WS\VC\INCLUDE\NMMINTRIN.H
D:\PROGRAMFILE\WS\VC\INCLUDE\SMMINTRIN.H
D:\PROGRAMFILE\WS\VC\INCLUDE\TMMINTRIN.H
D:\PROGRAMFILE\WS\VC\INCLUDE\PMMINTRIN.H
D:\PROGRAMFILE\WS\VC\INCLUDE\EMMINTRIN.H
D:\PROGRAMFILE\WS\VC\INCLUDE\XMMINTRIN.H
D:\PROGRAMFILE\WS\VC\INCLUDE\MMINTRIN.H
D:\PROGRAMFILE\WS\VC\INCLUDE\AMMINTRIN.H
D:\PROGRAMFILE\WS\VC\INCLUDE\MM3DNOW.H
D:\PROGRAMFILE\WS\VC\INCLUDE\TYPEINFO
D:\PROGRAMFILE\WS\VC\INCLUDE\XLOCINFO
D:\PROGRAMFILE\WS\VC\INCLUDE\XLOCINFO.H
D:\PROGRAMFILE\WS\VC\INCLUDE\CTYPE.H
D:\PROGRAMFILE\WS\VC\INCLUDE\LOCALE.H
D:\PROGRAMFILE\WS\VC\INCLUDE\XDEBUG
D:\PROGRAMFILE\WS\VC\INCLUDE\XMEMORY
D:\PROGRAMFILE\WS\VC\INCLUDE\XFACET
D:\PROGRAMFILE\WS\VC\INCLUDE\SYSTEM_ERROR
D:\PROGRAMFILE\WS\VC\INCLUDE\CERRNO
D:\PROGRAMFILE\WS\VC\INCLUDE\ERRNO.H
D:\PROGRAMFILE\WS\VC\INCLUDE\SHARE.H
D:\PROGRAMFILE\WS\VC\INCLUDE\OMP.H
D:\PROGRAMFILE\WS\VC\INCLUDE\CTIME
D:\PROGRAMFILE\WS\VC\INCLUDE\TIME.H
D:\PROGRAMFILE\WS\VC\INCLUDE\TIME.INL
D:\PROGRAMFILE\WS\VC\INCLUDE\IOMANIP
D:\PROGRAMFILE\WS\VC\INCLUDE\XLOCMON
D:\PROGRAMFILE\WS\VC\INCLUDE\XLOCTIME
